{
    "tracks": {
      "href": "https://api.spotify.com/v1/search?query=Muse&type=track&market=ES&offset=0&limit=1",
      "items": [
        {
          "album": {
            "album_type": "album",
            "artists": [
              {
                "external_urls": {
                  "spotify": "https://open.spotify.com/artist/5aIqB5nVVvmFsvSdExz408"
                },
                "href": "https://api.spotify.com/v1/artists/5aIqB5nVVvmFsvSdExz408",
                "id": "5aIqB5nVVvmFsvSdExz408",
                "name": "Johann Sebastian Bach",
                "type": "artist",
                "uri": "spotify:artist:5aIqB5nVVvmFsvSdExz408"
              },
              {
                "external_urls": {
                  "spotify": "https://open.spotify.com/artist/0LyfQWJT6nXafLPZqxe9Of"
                },
                "href": "https://api.spotify.com/v1/artists/0LyfQWJT6nXafLPZqxe9Of",
                "id": "0LyfQWJT6nXafLPZqxe9Of",
                "name": "Various Artists",
                "type": "artist",
                "uri": "spotify:artist:0LyfQWJT6nXafLPZqxe9Of"
              }
            ],
            "external_urls": {
              "spotify": "https://open.spotify.com/album/0T3MUdNlIhp254YMxtrk0f"
            },
            "href": "https://api.spotify.com/v1/albums/0T3MUdNlIhp254YMxtrk0f",
            "id": "0T3MUdNlIhp254YMxtrk0f",
            "images": [
              {
                "height": 640,
                "url": "https://i.scdn.co/image/ab67616d0000b27384ad36183dea63a65967a2a8",
                "width": 640
              },
              {
                "height": 300,
                "url": "https://i.scdn.co/image/ab67616d00001e0284ad36183dea63a65967a2a8",
                "width": 300
              },
              {
                "height": 64,
                "url": "https://i.scdn.co/image/ab67616d0000485184ad36183dea63a65967a2a8",
                "width": 64
              }
            ],
            "name": "The Imagination of Bach",
            "release_date": "2021-10-26",
            "release_date_precision": "day",
            "total_tracks": 420,
            "type": "album",
            "uri": "spotify:album:0T3MUdNlIhp254YMxtrk0f"
          },
          "artists": [
            {
              "external_urls": {
                "spotify": "https://open.spotify.com/artist/5aIqB5nVVvmFsvSdExz408"
              },
              "href": "https://api.spotify.com/v1/artists/5aIqB5nVVvmFsvSdExz408",
              "id": "5aIqB5nVVvmFsvSdExz408",
              "name": "Johann Sebastian Bach",
              "type": "artist",
              "uri": "spotify:artist:5aIqB5nVVvmFsvSdExz408"
            },
            {
              "external_urls": {
                "spotify": "https://open.spotify.com/artist/0z8gaF5NkaRne9Nt9mlp0g"
              },
              "href": "https://api.spotify.com/v1/artists/0z8gaF5NkaRne9Nt9mlp0g",
              "id": "0z8gaF5NkaRne9Nt9mlp0g",
              "name": "Justin Taylor",
              "type": "artist",
              "uri": "spotify:artist:0z8gaF5NkaRne9Nt9mlp0g"
            }
          ],
          "disc_number": 1,
          "duration_ms": 51453,
          "explicit": false,
          "external_ids": {
            "isrc": "DEN961830245"
          },
          "external_urls": {
            "spotify": "https://open.spotify.com/track/6pG6GlD6eWD423FOMzsWrI"
          },
          "href": "https://api.spotify.com/v1/tracks/6pG6GlD6eWD423FOMzsWrI",
          "id": "6pG6GlD6eWD423FOMzsWrI",
          "is_local": false,
          "is_playable": true,
          "name": "Musette In D Major, BWV Anh. 126 (App. C)",
          "popularity": 15,
          "preview_url": null,
          "track_number": 24,
          "type": "track",
          "uri": "spotify:track:6pG6GlD6eWD423FOMzsWrI"
        }
      ],
      "limit": 1,
      "next": "https://api.spotify.com/v1/search?query=Muse&type=track&market=ES&offset=1&limit=1",
      "offset": 0,
      "previous": null,
      "total": 10002
    }
  }